10_correlations
…
tail(mh)

## # A tibble: 6 x 5
##   Participant  Abil    IQ  Home    TV
##         <dbl> <dbl> <dbl> <dbl> <dbl>
## 1          20    54   104   102   678
## 2          21    52    98   124   564
## 3          22    48   117    87   787
## 4          23    61   100   141   582
## 5          24    54   101   117   647
## 6          25    48    94   111   448

mh

## # A tibble: 25 x 5
##    Participant  Abil    IQ  Home    TV
##          <dbl> <dbl> <dbl> <dbl> <dbl>
##  1           1    61   107   144   487
##  2           2    56   109   123   608
##  3           3    45    81   108   640
##  4           4    66   100   155   493
##  5           5    49    92   103   636
##  6           6    62   105   161   407
##  7           7    61    92   138   463
##  8           8    55   101   119   717
##  9           9    62   118   155   643
## 10          10    61    99   121   674
## #  with 15 more rows
…
